(['C:\\My Projects\\rickroll\\client.pyw'],
 ['C:\\My Projects\\rickroll', 'C:\\My Projects\\rickroll'],
 ['codecs'],
 ['c:\\users\\michael\\appdata\\local\\programs\\python\\python39\\lib\\site-packages\\_pyinstaller_hooks_contrib\\hooks\\stdhooks',
  'c:\\users\\michael\\appdata\\local\\programs\\python\\python39\\lib\\site-packages\\_pyinstaller_hooks_contrib\\hooks\\stdhooks\\__pycache__',
  'c:\\users\\michael\\appdata\\local\\programs\\python\\python39\\lib\\site-packages\\_pyinstaller_hooks_contrib\\hooks\\rthooks',
  'c:\\users\\michael\\appdata\\local\\programs\\python\\python39\\lib\\site-packages\\_pyinstaller_hooks_contrib\\hooks\\rthooks\\__pycache__',
  'c:\\users\\michael\\appdata\\local\\programs\\python\\python39\\lib\\site-packages\\_pyinstaller_hooks_contrib\\hooks'],
 {},
 [],
 [],
 False,
 False,
 False,
 '3.9.4 (tags/v3.9.4:1f2e308, Apr  6 2021, 13:40:21) [MSC v.1928 64 bit '
 '(AMD64)]',
 [('pyi_rth_pkgutil',
   'C:\\Users\\Michael\\AppData\\Local\\Programs\\Python\\Python39\\Lib\\site-packages\\PyInstaller\\hooks\\rthooks\\pyi_rth_pkgutil.py',
   'PYSOURCE'),
  ('pyi_rth_multiprocessing',
   'C:\\Users\\Michael\\AppData\\Local\\Programs\\Python\\Python39\\Lib\\site-packages\\PyInstaller\\hooks\\rthooks\\pyi_rth_multiprocessing.py',
   'PYSOURCE'),
  ('pyi_rth_inspect',
   'C:\\Users\\Michael\\AppData\\Local\\Programs\\Python\\Python39\\Lib\\site-packages\\PyInstaller\\hooks\\rthooks\\pyi_rth_inspect.py',
   'PYSOURCE'),
  ('client', 'C:\\My Projects\\rickroll\\client.pyw', 'PYSOURCE')],
 [('os',
   'c:\\users\\michael\\appdata\\local\\programs\\python\\python39\\lib\\os.py',
   'PYMODULE'),
  ('subprocess',
   'c:\\users\\michael\\appdata\\local\\programs\\python\\python39\\lib\\subprocess.py',
   'PYMODULE'),
  ('selectors',
   'c:\\users\\michael\\appdata\\local\\programs\\python\\python39\\lib\\selectors.py',
   'PYMODULE'),
  ('contextlib',
   'c:\\users\\michael\\appdata\\local\\programs\\python\\python39\\lib\\contextlib.py',
   'PYMODULE'),
  ('signal',
   'c:\\users\\michael\\appdata\\local\\programs\\python\\python39\\lib\\signal.py',
   'PYMODULE'),
  ('ntpath',
   'c:\\users\\michael\\appdata\\local\\programs\\python\\python39\\lib\\ntpath.py',
   'PYMODULE'),
  ('string',
   'c:\\users\\michael\\appdata\\local\\programs\\python\\python39\\lib\\string.py',
   'PYMODULE'),
  ('genericpath',
   'c:\\users\\michael\\appdata\\local\\programs\\python\\python39\\lib\\genericpath.py',
   'PYMODULE'),
  ('posixpath',
   'c:\\users\\michael\\appdata\\local\\programs\\python\\python39\\lib\\posixpath.py',
   'PYMODULE'),
  ('stat',
   'c:\\users\\michael\\appdata\\local\\programs\\python\\python39\\lib\\stat.py',
   'PYMODULE'),
  ('inspect',
   'c:\\users\\michael\\appdata\\local\\programs\\python\\python39\\lib\\inspect.py',
   'PYMODULE'),
  ('importlib',
   'c:\\users\\michael\\appdata\\local\\programs\\python\\python39\\lib\\importlib\\__init__.py',
   'PYMODULE'),
  ('importlib._bootstrap_external',
   'c:\\users\\michael\\appdata\\local\\programs\\python\\python39\\lib\\importlib\\_bootstrap_external.py',
   'PYMODULE'),
  ('importlib.metadata',
   'c:\\users\\michael\\appdata\\local\\programs\\python\\python39\\lib\\importlib\\metadata.py',
   'PYMODULE'),
  ('configparser',
   'c:\\users\\michael\\appdata\\local\\programs\\python\\python39\\lib\\configparser.py',
   'PYMODULE'),
  ('zipfile',
   'c:\\users\\michael\\appdata\\local\\programs\\python\\python39\\lib\\zipfile.py',
   'PYMODULE'),
  ('py_compile',
   'c:\\users\\michael\\appdata\\local\\programs\\python\\python39\\lib\\py_compile.py',
   'PYMODULE'),
  ('lzma',
   'c:\\users\\michael\\appdata\\local\\programs\\python\\python39\\lib\\lzma.py',
   'PYMODULE'),
  ('_compression',
   'c:\\users\\michael\\appdata\\local\\programs\\python\\python39\\lib\\_compression.py',
   'PYMODULE'),
  ('bz2',
   'c:\\users\\michael\\appdata\\local\\programs\\python\\python39\\lib\\bz2.py',
   'PYMODULE'),
  ('struct',
   'c:\\users\\michael\\appdata\\local\\programs\\python\\python39\\lib\\struct.py',
   'PYMODULE'),
  ('shutil',
   'c:\\users\\michael\\appdata\\local\\programs\\python\\python39\\lib\\shutil.py',
   'PYMODULE'),
  ('tarfile',
   'c:\\users\\michael\\appdata\\local\\programs\\python\\python39\\lib\\tarfile.py',
   'PYMODULE'),
  ('gzip',
   'c:\\users\\michael\\appdata\\local\\programs\\python\\python39\\lib\\gzip.py',
   'PYMODULE'),
  ('copy',
   'c:\\users\\michael\\appdata\\local\\programs\\python\\python39\\lib\\copy.py',
   'PYMODULE'),
  ('fnmatch',
   'c:\\users\\michael\\appdata\\local\\programs\\python\\python39\\lib\\fnmatch.py',
   'PYMODULE'),
  ('importlib.util',
   'c:\\users\\michael\\appdata\\local\\programs\\python\\python39\\lib\\importlib\\util.py',
   'PYMODULE'),
  ('pathlib',
   'c:\\users\\michael\\appdata\\local\\programs\\python\\python39\\lib\\pathlib.py',
   'PYMODULE'),
  ('urllib.parse',
   'c:\\users\\michael\\appdata\\local\\programs\\python\\python39\\lib\\urllib\\parse.py',
   'PYMODULE'),
  ('urllib',
   'c:\\users\\michael\\appdata\\local\\programs\\python\\python39\\lib\\urllib\\__init__.py',
   'PYMODULE'),
  ('email',
   'c:\\users\\michael\\appdata\\local\\programs\\python\\python39\\lib\\email\\__init__.py',
   'PYMODULE'),
  ('email.parser',
   'c:\\users\\michael\\appdata\\local\\programs\\python\\python39\\lib\\email\\parser.py',
   'PYMODULE'),
  ('email._policybase',
   'c:\\users\\michael\\appdata\\local\\programs\\python\\python39\\lib\\email\\_policybase.py',
   'PYMODULE'),
  ('email.utils',
   'c:\\users\\michael\\appdata\\local\\programs\\python\\python39\\lib\\email\\utils.py',
   'PYMODULE'),
  ('email._parseaddr',
   'c:\\users\\michael\\appdata\\local\\programs\\python\\python39\\lib\\email\\_parseaddr.py',
   'PYMODULE'),
  ('calendar',
   'c:\\users\\michael\\appdata\\local\\programs\\python\\python39\\lib\\calendar.py',
   'PYMODULE'),
  ('datetime',
   'c:\\users\\michael\\appdata\\local\\programs\\python\\python39\\lib\\datetime.py',
   'PYMODULE'),
  ('_strptime',
   'c:\\users\\michael\\appdata\\local\\programs\\python\\python39\\lib\\_strptime.py',
   'PYMODULE'),
  ('random',
   'c:\\users\\michael\\appdata\\local\\programs\\python\\python39\\lib\\random.py',
   'PYMODULE'),
  ('statistics',
   'c:\\users\\michael\\appdata\\local\\programs\\python\\python39\\lib\\statistics.py',
   'PYMODULE'),
  ('decimal',
   'c:\\users\\michael\\appdata\\local\\programs\\python\\python39\\lib\\decimal.py',
   'PYMODULE'),
  ('_pydecimal',
   'c:\\users\\michael\\appdata\\local\\programs\\python\\python39\\lib\\_pydecimal.py',
   'PYMODULE'),
  ('contextvars',
   'c:\\users\\michael\\appdata\\local\\programs\\python\\python39\\lib\\contextvars.py',
   'PYMODULE'),
  ('fractions',
   'c:\\users\\michael\\appdata\\local\\programs\\python\\python39\\lib\\fractions.py',
   'PYMODULE'),
  ('numbers',
   'c:\\users\\michael\\appdata\\local\\programs\\python\\python39\\lib\\numbers.py',
   'PYMODULE'),
  ('hashlib',
   'c:\\users\\michael\\appdata\\local\\programs\\python\\python39\\lib\\hashlib.py',
   'PYMODULE'),
  ('logging',
   'c:\\users\\michael\\appdata\\local\\programs\\python\\python39\\lib\\logging\\__init__.py',
   'PYMODULE'),
  ('pickle',
   'c:\\users\\michael\\appdata\\local\\programs\\python\\python39\\lib\\pickle.py',
   'PYMODULE'),
  ('pprint',
   'c:\\users\\michael\\appdata\\local\\programs\\python\\python39\\lib\\pprint.py',
   'PYMODULE'),
  ('doctest',
   'c:\\users\\michael\\appdata\\local\\programs\\python\\python39\\lib\\doctest.py',
   'PYMODULE'),
  ('unittest',
   'c:\\users\\michael\\appdata\\local\\programs\\python\\python39\\lib\\unittest\\__init__.py',
   'PYMODULE'),
  ('unittest.async_case',
   'c:\\users\\michael\\appdata\\local\\programs\\python\\python39\\lib\\unittest\\async_case.py',
   'PYMODULE'),
  ('asyncio',
   'c:\\users\\michael\\appdata\\local\\programs\\python\\python39\\lib\\asyncio\\__init__.py',
   'PYMODULE'),
  ('asyncio.unix_events',
   'c:\\users\\michael\\appdata\\local\\programs\\python\\python39\\lib\\asyncio\\unix_events.py',
   'PYMODULE'),
  ('asyncio.log',
   'c:\\users\\michael\\appdata\\local\\programs\\python\\python39\\lib\\asyncio\\log.py',
   'PYMODULE'),
  ('asyncio.windows_events',
   'c:\\users\\michael\\appdata\\local\\programs\\python\\python39\\lib\\asyncio\\windows_events.py',
   'PYMODULE'),
  ('asyncio.windows_utils',
   'c:\\users\\michael\\appdata\\local\\programs\\python\\python39\\lib\\asyncio\\windows_utils.py',
   'PYMODULE'),
  ('tempfile',
   'c:\\users\\michael\\appdata\\local\\programs\\python\\python39\\lib\\tempfile.py',
   'PYMODULE'),
  ('asyncio.selector_events',
   'c:\\users\\michael\\appdata\\local\\programs\\python\\python39\\lib\\asyncio\\selector_events.py',
   'PYMODULE'),
  ('ssl',
   'c:\\users\\michael\\appdata\\local\\programs\\python\\python39\\lib\\ssl.py',
   'PYMODULE'),
  ('base64',
   'c:\\users\\michael\\appdata\\local\\programs\\python\\python39\\lib\\base64.py',
   'PYMODULE'),
  ('getopt',
   'c:\\users\\michael\\appdata\\local\\programs\\python\\python39\\lib\\getopt.py',
   'PYMODULE'),
  ('gettext',
   'c:\\users\\michael\\appdata\\local\\programs\\python\\python39\\lib\\gettext.py',
   'PYMODULE'),
  ('asyncio.proactor_events',
   'c:\\users\\michael\\appdata\\local\\programs\\python\\python39\\lib\\asyncio\\proactor_events.py',
   'PYMODULE'),
  ('asyncio.base_subprocess',
   'c:\\users\\michael\\appdata\\local\\programs\\python\\python39\\lib\\asyncio\\base_subprocess.py',
   'PYMODULE'),
  ('asyncio.threads',
   'c:\\users\\michael\\appdata\\local\\programs\\python\\python39\\lib\\asyncio\\threads.py',
   'PYMODULE'),
  ('asyncio.subprocess',
   'c:\\users\\michael\\appdata\\local\\programs\\python\\python39\\lib\\asyncio\\subprocess.py',
   'PYMODULE'),
  ('asyncio.streams',
   'c:\\users\\michael\\appdata\\local\\programs\\python\\python39\\lib\\asyncio\\streams.py',
   'PYMODULE'),
  ('asyncio.queues',
   'c:\\users\\michael\\appdata\\local\\programs\\python\\python39\\lib\\asyncio\\queues.py',
   'PYMODULE'),
  ('asyncio.runners',
   'c:\\users\\michael\\appdata\\local\\programs\\python\\python39\\lib\\asyncio\\runners.py',
   'PYMODULE'),
  ('asyncio.events',
   'c:\\users\\michael\\appdata\\local\\programs\\python\\python39\\lib\\asyncio\\events.py',
   'PYMODULE'),
  ('asyncio.base_events',
   'c:\\users\\michael\\appdata\\local\\programs\\python\\python39\\lib\\asyncio\\base_events.py',
   'PYMODULE'),
  ('concurrent.futures',
   'c:\\users\\michael\\appdata\\local\\programs\\python\\python39\\lib\\concurrent\\futures\\__init__.py',
   'PYMODULE'),
  ('concurrent.futures.thread',
   'c:\\users\\michael\\appdata\\local\\programs\\python\\python39\\lib\\concurrent\\futures\\thread.py',
   'PYMODULE'),
  ('queue',
   'c:\\users\\michael\\appdata\\local\\programs\\python\\python39\\lib\\queue.py',
   'PYMODULE'),
  ('concurrent.futures.process',
   'c:\\users\\michael\\appdata\\local\\programs\\python\\python39\\lib\\concurrent\\futures\\process.py',
   'PYMODULE'),
  ('multiprocessing.queues',
   'c:\\users\\michael\\appdata\\local\\programs\\python\\python39\\lib\\multiprocessing\\queues.py',
   'PYMODULE'),
  ('multiprocessing.synchronize',
   'c:\\users\\michael\\appdata\\local\\programs\\python\\python39\\lib\\multiprocessing\\synchronize.py',
   'PYMODULE'),
  ('multiprocessing.heap',
   'c:\\users\\michael\\appdata\\local\\programs\\python\\python39\\lib\\multiprocessing\\heap.py',
   'PYMODULE'),
  ('multiprocessing.resource_tracker',
   'c:\\users\\michael\\appdata\\local\\programs\\python\\python39\\lib\\multiprocessing\\resource_tracker.py',
   'PYMODULE'),
  ('multiprocessing.spawn',
   'c:\\users\\michael\\appdata\\local\\programs\\python\\python39\\lib\\multiprocessing\\spawn.py',
   'PYMODULE'),
  ('runpy',
   'c:\\users\\michael\\appdata\\local\\programs\\python\\python39\\lib\\runpy.py',
   'PYMODULE'),
  ('pkgutil',
   'c:\\users\\michael\\appdata\\local\\programs\\python\\python39\\lib\\pkgutil.py',
   'PYMODULE'),
  ('zipimport',
   'c:\\users\\michael\\appdata\\local\\programs\\python\\python39\\lib\\zipimport.py',
   'PYMODULE'),
  ('multiprocessing.process',
   'c:\\users\\michael\\appdata\\local\\programs\\python\\python39\\lib\\multiprocessing\\process.py',
   'PYMODULE'),
  ('multiprocessing.util',
   'c:\\users\\michael\\appdata\\local\\programs\\python\\python39\\lib\\multiprocessing\\util.py',
   'PYMODULE'),
  ('multiprocessing.forkserver',
   'c:\\users\\michael\\appdata\\local\\programs\\python\\python39\\lib\\multiprocessing\\forkserver.py',
   'PYMODULE'),
  ('multiprocessing.context',
   'c:\\users\\michael\\appdata\\local\\programs\\python\\python39\\lib\\multiprocessing\\context.py',
   'PYMODULE'),
  ('multiprocessing.popen_spawn_win32',
   'c:\\users\\michael\\appdata\\local\\programs\\python\\python39\\lib\\multiprocessing\\popen_spawn_win32.py',
   'PYMODULE'),
  ('multiprocessing.popen_forkserver',
   'c:\\users\\michael\\appdata\\local\\programs\\python\\python39\\lib\\multiprocessing\\popen_forkserver.py',
   'PYMODULE'),
  ('multiprocessing.popen_spawn_posix',
   'c:\\users\\michael\\appdata\\local\\programs\\python\\python39\\lib\\multiprocessing\\popen_spawn_posix.py',
   'PYMODULE'),
  ('multiprocessing.popen_fork',
   'c:\\users\\michael\\appdata\\local\\programs\\python\\python39\\lib\\multiprocessing\\popen_fork.py',
   'PYMODULE'),
  ('multiprocessing.sharedctypes',
   'c:\\users\\michael\\appdata\\local\\programs\\python\\python39\\lib\\multiprocessing\\sharedctypes.py',
   'PYMODULE'),
  ('ctypes',
   'c:\\users\\michael\\appdata\\local\\programs\\python\\python39\\lib\\ctypes\\__init__.py',
   'PYMODULE'),
  ('ctypes._endian',
   'c:\\users\\michael\\appdata\\local\\programs\\python\\python39\\lib\\ctypes\\_endian.py',
   'PYMODULE'),
  ('multiprocessing.pool',
   'c:\\users\\michael\\appdata\\local\\programs\\python\\python39\\lib\\multiprocessing\\pool.py',
   'PYMODULE'),
  ('multiprocessing.dummy',
   'c:\\users\\michael\\appdata\\local\\programs\\python\\python39\\lib\\multiprocessing\\dummy\\__init__.py',
   'PYMODULE'),
  ('multiprocessing.dummy.connection',
   'c:\\users\\michael\\appdata\\local\\programs\\python\\python39\\lib\\multiprocessing\\dummy\\connection.py',
   'PYMODULE'),
  ('multiprocessing.managers',
   'c:\\users\\michael\\appdata\\local\\programs\\python\\python39\\lib\\multiprocessing\\managers.py',
   'PYMODULE'),
  ('multiprocessing.shared_memory',
   'c:\\users\\michael\\appdata\\local\\programs\\python\\python39\\lib\\multiprocessing\\shared_memory.py',
   'PYMODULE'),
  ('secrets',
   'c:\\users\\michael\\appdata\\local\\programs\\python\\python39\\lib\\secrets.py',
   'PYMODULE'),
  ('hmac',
   'c:\\users\\michael\\appdata\\local\\programs\\python\\python39\\lib\\hmac.py',
   'PYMODULE'),
  ('multiprocessing.reduction',
   'c:\\users\\michael\\appdata\\local\\programs\\python\\python39\\lib\\multiprocessing\\reduction.py',
   'PYMODULE'),
  ('multiprocessing.resource_sharer',
   'c:\\users\\michael\\appdata\\local\\programs\\python\\python39\\lib\\multiprocessing\\resource_sharer.py',
   'PYMODULE'),
  ('multiprocessing.connection',
   'c:\\users\\michael\\appdata\\local\\programs\\python\\python39\\lib\\multiprocessing\\connection.py',
   'PYMODULE'),
  ('xmlrpc.client',
   'c:\\users\\michael\\appdata\\local\\programs\\python\\python39\\lib\\xmlrpc\\client.py',
   'PYMODULE'),
  ('xmlrpc',
   'c:\\users\\michael\\appdata\\local\\programs\\python\\python39\\lib\\xmlrpc\\__init__.py',
   'PYMODULE'),
  ('xml.parsers.expat',
   'c:\\users\\michael\\appdata\\local\\programs\\python\\python39\\lib\\xml\\parsers\\expat.py',
   'PYMODULE'),
  ('xml.parsers',
   'c:\\users\\michael\\appdata\\local\\programs\\python\\python39\\lib\\xml\\parsers\\__init__.py',
   'PYMODULE'),
  ('xml',
   'c:\\users\\michael\\appdata\\local\\programs\\python\\python39\\lib\\xml\\__init__.py',
   'PYMODULE'),
  ('xml.sax.expatreader',
   'c:\\users\\michael\\appdata\\local\\programs\\python\\python39\\lib\\xml\\sax\\expatreader.py',
   'PYMODULE'),
  ('xml.sax.saxutils',
   'c:\\users\\michael\\appdata\\local\\programs\\python\\python39\\lib\\xml\\sax\\saxutils.py',
   'PYMODULE'),
  ('urllib.request',
   'c:\\users\\michael\\appdata\\local\\programs\\python\\python39\\lib\\urllib\\request.py',
   'PYMODULE'),
  ('getpass',
   'c:\\users\\michael\\appdata\\local\\programs\\python\\python39\\lib\\getpass.py',
   'PYMODULE'),
  ('nturl2path',
   'c:\\users\\michael\\appdata\\local\\programs\\python\\python39\\lib\\nturl2path.py',
   'PYMODULE'),
  ('ftplib',
   'c:\\users\\michael\\appdata\\local\\programs\\python\\python39\\lib\\ftplib.py',
   'PYMODULE'),
  ('netrc',
   'c:\\users\\michael\\appdata\\local\\programs\\python\\python39\\lib\\netrc.py',
   'PYMODULE'),
  ('shlex',
   'c:\\users\\michael\\appdata\\local\\programs\\python\\python39\\lib\\shlex.py',
   'PYMODULE'),
  ('mimetypes',
   'c:\\users\\michael\\appdata\\local\\programs\\python\\python39\\lib\\mimetypes.py',
   'PYMODULE'),
  ('http.cookiejar',
   'c:\\users\\michael\\appdata\\local\\programs\\python\\python39\\lib\\http\\cookiejar.py',
   'PYMODULE'),
  ('http',
   'c:\\users\\michael\\appdata\\local\\programs\\python\\python39\\lib\\http\\__init__.py',
   'PYMODULE'),
  ('urllib.response',
   'c:\\users\\michael\\appdata\\local\\programs\\python\\python39\\lib\\urllib\\response.py',
   'PYMODULE'),
  ('urllib.error',
   'c:\\users\\michael\\appdata\\local\\programs\\python\\python39\\lib\\urllib\\error.py',
   'PYMODULE'),
  ('xml.sax',
   'c:\\users\\michael\\appdata\\local\\programs\\python\\python39\\lib\\xml\\sax\\__init__.py',
   'PYMODULE'),
  ('xml.sax.handler',
   'c:\\users\\michael\\appdata\\local\\programs\\python\\python39\\lib\\xml\\sax\\handler.py',
   'PYMODULE'),
  ('xml.sax._exceptions',
   'c:\\users\\michael\\appdata\\local\\programs\\python\\python39\\lib\\xml\\sax\\_exceptions.py',
   'PYMODULE'),
  ('xml.sax.xmlreader',
   'c:\\users\\michael\\appdata\\local\\programs\\python\\python39\\lib\\xml\\sax\\xmlreader.py',
   'PYMODULE'),
  ('http.client',
   'c:\\users\\michael\\appdata\\local\\programs\\python\\python39\\lib\\http\\client.py',
   'PYMODULE'),
  ('email.message',
   'c:\\users\\michael\\appdata\\local\\programs\\python\\python39\\lib\\email\\message.py',
   'PYMODULE'),
  ('email.policy',
   'c:\\users\\michael\\appdata\\local\\programs\\python\\python39\\lib\\email\\policy.py',
   'PYMODULE'),
  ('email.contentmanager',
   'c:\\users\\michael\\appdata\\local\\programs\\python\\python39\\lib\\email\\contentmanager.py',
   'PYMODULE'),
  ('email.quoprimime',
   'c:\\users\\michael\\appdata\\local\\programs\\python\\python39\\lib\\email\\quoprimime.py',
   'PYMODULE'),
  ('email.headerregistry',
   'c:\\users\\michael\\appdata\\local\\programs\\python\\python39\\lib\\email\\headerregistry.py',
   'PYMODULE'),
  ('email.iterators',
   'c:\\users\\michael\\appdata\\local\\programs\\python\\python39\\lib\\email\\iterators.py',
   'PYMODULE'),
  ('email.generator',
   'c:\\users\\michael\\appdata\\local\\programs\\python\\python39\\lib\\email\\generator.py',
   'PYMODULE'),
  ('email._encoded_words',
   'c:\\users\\michael\\appdata\\local\\programs\\python\\python39\\lib\\email\\_encoded_words.py',
   'PYMODULE'),
  ('quopri',
   'c:\\users\\michael\\appdata\\local\\programs\\python\\python39\\lib\\quopri.py',
   'PYMODULE'),
  ('uu',
   'c:\\users\\michael\\appdata\\local\\programs\\python\\python39\\lib\\uu.py',
   'PYMODULE'),
  ('optparse',
   'c:\\users\\michael\\appdata\\local\\programs\\python\\python39\\lib\\optparse.py',
   'PYMODULE'),
  ('textwrap',
   'c:\\users\\michael\\appdata\\local\\programs\\python\\python39\\lib\\textwrap.py',
   'PYMODULE'),
  ('multiprocessing',
   'c:\\users\\michael\\appdata\\local\\programs\\python\\python39\\lib\\multiprocessing\\__init__.py',
   'PYMODULE'),
  ('concurrent.futures._base',
   'c:\\users\\michael\\appdata\\local\\programs\\python\\python39\\lib\\concurrent\\futures\\_base.py',
   'PYMODULE'),
  ('concurrent',
   'c:\\users\\michael\\appdata\\local\\programs\\python\\python39\\lib\\concurrent\\__init__.py',
   'PYMODULE'),
  ('asyncio.trsock',
   'c:\\users\\michael\\appdata\\local\\programs\\python\\python39\\lib\\asyncio\\trsock.py',
   'PYMODULE'),
  ('asyncio.staggered',
   'c:\\users\\michael\\appdata\\local\\programs\\python\\python39\\lib\\asyncio\\staggered.py',
   'PYMODULE'),
  ('typing',
   'c:\\users\\michael\\appdata\\local\\programs\\python\\python39\\lib\\typing.py',
   'PYMODULE'),
  ('asyncio.tasks',
   'c:\\users\\michael\\appdata\\local\\programs\\python\\python39\\lib\\asyncio\\tasks.py',
   'PYMODULE'),
  ('asyncio.base_tasks',
   'c:\\users\\michael\\appdata\\local\\programs\\python\\python39\\lib\\asyncio\\base_tasks.py',
   'PYMODULE'),
  ('asyncio.locks',
   'c:\\users\\michael\\appdata\\local\\programs\\python\\python39\\lib\\asyncio\\locks.py',
   'PYMODULE'),
  ('asyncio.sslproto',
   'c:\\users\\michael\\appdata\\local\\programs\\python\\python39\\lib\\asyncio\\sslproto.py',
   'PYMODULE'),
  ('asyncio.transports',
   'c:\\users\\michael\\appdata\\local\\programs\\python\\python39\\lib\\asyncio\\transports.py',
   'PYMODULE'),
  ('asyncio.protocols',
   'c:\\users\\michael\\appdata\\local\\programs\\python\\python39\\lib\\asyncio\\protocols.py',
   'PYMODULE'),
  ('asyncio.futures',
   'c:\\users\\michael\\appdata\\local\\programs\\python\\python39\\lib\\asyncio\\futures.py',
   'PYMODULE'),
  ('asyncio.exceptions',
   'c:\\users\\michael\\appdata\\local\\programs\\python\\python39\\lib\\asyncio\\exceptions.py',
   'PYMODULE'),
  ('asyncio.coroutines',
   'c:\\users\\michael\\appdata\\local\\programs\\python\\python39\\lib\\asyncio\\coroutines.py',
   'PYMODULE'),
  ('asyncio.base_futures',
   'c:\\users\\michael\\appdata\\local\\programs\\python\\python39\\lib\\asyncio\\base_futures.py',
   'PYMODULE'),
  ('asyncio.format_helpers',
   'c:\\users\\michael\\appdata\\local\\programs\\python\\python39\\lib\\asyncio\\format_helpers.py',
   'PYMODULE'),
  ('asyncio.constants',
   'c:\\users\\michael\\appdata\\local\\programs\\python\\python39\\lib\\asyncio\\constants.py',
   'PYMODULE'),
  ('unittest.signals',
   'c:\\users\\michael\\appdata\\local\\programs\\python\\python39\\lib\\unittest\\signals.py',
   'PYMODULE'),
  ('unittest.main',
   'c:\\users\\michael\\appdata\\local\\programs\\python\\python39\\lib\\unittest\\main.py',
   'PYMODULE'),
  ('unittest.runner',
   'c:\\users\\michael\\appdata\\local\\programs\\python\\python39\\lib\\unittest\\runner.py',
   'PYMODULE'),
  ('unittest.loader',
   'c:\\users\\michael\\appdata\\local\\programs\\python\\python39\\lib\\unittest\\loader.py',
   'PYMODULE'),
  ('unittest.suite',
   'c:\\users\\michael\\appdata\\local\\programs\\python\\python39\\lib\\unittest\\suite.py',
   'PYMODULE'),
  ('unittest.case',
   'c:\\users\\michael\\appdata\\local\\programs\\python\\python39\\lib\\unittest\\case.py',
   'PYMODULE'),
  ('unittest._log',
   'c:\\users\\michael\\appdata\\local\\programs\\python\\python39\\lib\\unittest\\_log.py',
   'PYMODULE'),
  ('unittest.result',
   'c:\\users\\michael\\appdata\\local\\programs\\python\\python39\\lib\\unittest\\result.py',
   'PYMODULE'),
  ('unittest.util',
   'c:\\users\\michael\\appdata\\local\\programs\\python\\python39\\lib\\unittest\\util.py',
   'PYMODULE'),
  ('pdb',
   'c:\\users\\michael\\appdata\\local\\programs\\python\\python39\\lib\\pdb.py',
   'PYMODULE'),
  ('pydoc',
   'c:\\users\\michael\\appdata\\local\\programs\\python\\python39\\lib\\pydoc.py',
   'PYMODULE'),
  ('webbrowser',
   'c:\\users\\michael\\appdata\\local\\programs\\python\\python39\\lib\\webbrowser.py',
   'PYMODULE'),
  ('http.server',
   'c:\\users\\michael\\appdata\\local\\programs\\python\\python39\\lib\\http\\server.py',
   'PYMODULE'),
  ('socketserver',
   'c:\\users\\michael\\appdata\\local\\programs\\python\\python39\\lib\\socketserver.py',
   'PYMODULE'),
  ('html',
   'c:\\users\\michael\\appdata\\local\\programs\\python\\python39\\lib\\html\\__init__.py',
   'PYMODULE'),
  ('html.entities',
   'c:\\users\\michael\\appdata\\local\\programs\\python\\python39\\lib\\html\\entities.py',
   'PYMODULE'),
  ('pydoc_data.topics',
   'c:\\users\\michael\\appdata\\local\\programs\\python\\python39\\lib\\pydoc_data\\topics.py',
   'PYMODULE'),
  ('pydoc_data',
   'c:\\users\\michael\\appdata\\local\\programs\\python\\python39\\lib\\pydoc_data\\__init__.py',
   'PYMODULE'),
  ('tty',
   'c:\\users\\michael\\appdata\\local\\programs\\python\\python39\\lib\\tty.py',
   'PYMODULE'),
  ('sysconfig',
   'c:\\users\\michael\\appdata\\local\\programs\\python\\python39\\lib\\sysconfig.py',
   'PYMODULE'),
  ('_aix_support',
   'c:\\users\\michael\\appdata\\local\\programs\\python\\python39\\lib\\_aix_support.py',
   'PYMODULE'),
  ('_bootsubprocess',
   'c:\\users\\michael\\appdata\\local\\programs\\python\\python39\\lib\\_bootsubprocess.py',
   'PYMODULE'),
  ('_osx_support',
   'c:\\users\\michael\\appdata\\local\\programs\\python\\python39\\lib\\_osx_support.py',
   'PYMODULE'),
  ('distutils.log',
   'c:\\users\\michael\\appdata\\local\\programs\\python\\python39\\lib\\distutils\\log.py',
   'PYMODULE'),
  ('distutils',
   'c:\\users\\michael\\appdata\\local\\programs\\python\\python39\\lib\\distutils\\__init__.py',
   'PYMODULE'),
  ('distutils.ccompiler',
   'c:\\users\\michael\\appdata\\local\\programs\\python\\python39\\lib\\distutils\\ccompiler.py',
   'PYMODULE'),
  ('distutils.fancy_getopt',
   'c:\\users\\michael\\appdata\\local\\programs\\python\\python39\\lib\\distutils\\fancy_getopt.py',
   'PYMODULE'),
  ('distutils.debug',
   'c:\\users\\michael\\appdata\\local\\programs\\python\\python39\\lib\\distutils\\debug.py',
   'PYMODULE'),
  ('distutils.util',
   'c:\\users\\michael\\appdata\\local\\programs\\python\\python39\\lib\\distutils\\util.py',
   'PYMODULE'),
  ('distutils.filelist',
   'c:\\users\\michael\\appdata\\local\\programs\\python\\python39\\lib\\distutils\\filelist.py',
   'PYMODULE'),
  ('distutils.dep_util',
   'c:\\users\\michael\\appdata\\local\\programs\\python\\python39\\lib\\distutils\\dep_util.py',
   'PYMODULE'),
  ('distutils.dir_util',
   'c:\\users\\michael\\appdata\\local\\programs\\python\\python39\\lib\\distutils\\dir_util.py',
   'PYMODULE'),
  ('distutils.file_util',
   'c:\\users\\michael\\appdata\\local\\programs\\python\\python39\\lib\\distutils\\file_util.py',
   'PYMODULE'),
  ('distutils.spawn',
   'c:\\users\\michael\\appdata\\local\\programs\\python\\python39\\lib\\distutils\\spawn.py',
   'PYMODULE'),
  ('distutils.errors',
   'c:\\users\\michael\\appdata\\local\\programs\\python\\python39\\lib\\distutils\\errors.py',
   'PYMODULE'),
  ('distutils.sysconfig',
   'c:\\users\\michael\\appdata\\local\\programs\\python\\python39\\lib\\distutils\\sysconfig.py',
   'PYMODULE'),
  ('distutils.text_file',
   'c:\\users\\michael\\appdata\\local\\programs\\python\\python39\\lib\\distutils\\text_file.py',
   'PYMODULE'),
  ('platform',
   'c:\\users\\michael\\appdata\\local\\programs\\python\\python39\\lib\\platform.py',
   'PYMODULE'),
  ('plistlib',
   'c:\\users\\michael\\appdata\\local\\programs\\python\\python39\\lib\\plistlib.py',
   'PYMODULE'),
  ('glob',
   'c:\\users\\michael\\appdata\\local\\programs\\python\\python39\\lib\\glob.py',
   'PYMODULE'),
  ('code',
   'c:\\users\\michael\\appdata\\local\\programs\\python\\python39\\lib\\code.py',
   'PYMODULE'),
  ('codeop',
   'c:\\users\\michael\\appdata\\local\\programs\\python\\python39\\lib\\codeop.py',
   'PYMODULE'),
  ('bdb',
   'c:\\users\\michael\\appdata\\local\\programs\\python\\python39\\lib\\bdb.py',
   'PYMODULE'),
  ('cmd',
   'c:\\users\\michael\\appdata\\local\\programs\\python\\python39\\lib\\cmd.py',
   'PYMODULE'),
  ('difflib',
   'c:\\users\\michael\\appdata\\local\\programs\\python\\python39\\lib\\difflib.py',
   'PYMODULE'),
  ('__future__',
   'c:\\users\\michael\\appdata\\local\\programs\\python\\python39\\lib\\__future__.py',
   'PYMODULE'),
  ('_compat_pickle',
   'c:\\users\\michael\\appdata\\local\\programs\\python\\python39\\lib\\_compat_pickle.py',
   'PYMODULE'),
  ('bisect',
   'c:\\users\\michael\\appdata\\local\\programs\\python\\python39\\lib\\bisect.py',
   'PYMODULE'),
  ('email.feedparser',
   'c:\\users\\michael\\appdata\\local\\programs\\python\\python39\\lib\\email\\feedparser.py',
   'PYMODULE'),
  ('email._header_value_parser',
   'c:\\users\\michael\\appdata\\local\\programs\\python\\python39\\lib\\email\\_header_value_parser.py',
   'PYMODULE'),
  ('email.header',
   'c:\\users\\michael\\appdata\\local\\programs\\python\\python39\\lib\\email\\header.py',
   'PYMODULE'),
  ('email.base64mime',
   'c:\\users\\michael\\appdata\\local\\programs\\python\\python39\\lib\\email\\base64mime.py',
   'PYMODULE'),
  ('email.charset',
   'c:\\users\\michael\\appdata\\local\\programs\\python\\python39\\lib\\email\\charset.py',
   'PYMODULE'),
  ('email.encoders',
   'c:\\users\\michael\\appdata\\local\\programs\\python\\python39\\lib\\email\\encoders.py',
   'PYMODULE'),
  ('email.errors',
   'c:\\users\\michael\\appdata\\local\\programs\\python\\python39\\lib\\email\\errors.py',
   'PYMODULE'),
  ('csv',
   'c:\\users\\michael\\appdata\\local\\programs\\python\\python39\\lib\\csv.py',
   'PYMODULE'),
  ('importlib.abc',
   'c:\\users\\michael\\appdata\\local\\programs\\python\\python39\\lib\\importlib\\abc.py',
   'PYMODULE'),
  ('importlib._bootstrap',
   'c:\\users\\michael\\appdata\\local\\programs\\python\\python39\\lib\\importlib\\_bootstrap.py',
   'PYMODULE'),
  ('argparse',
   'c:\\users\\michael\\appdata\\local\\programs\\python\\python39\\lib\\argparse.py',
   'PYMODULE'),
  ('token',
   'c:\\users\\michael\\appdata\\local\\programs\\python\\python39\\lib\\token.py',
   'PYMODULE'),
  ('importlib.machinery',
   'c:\\users\\michael\\appdata\\local\\programs\\python\\python39\\lib\\importlib\\machinery.py',
   'PYMODULE'),
  ('dis',
   'c:\\users\\michael\\appdata\\local\\programs\\python\\python39\\lib\\dis.py',
   'PYMODULE'),
  ('opcode',
   'c:\\users\\michael\\appdata\\local\\programs\\python\\python39\\lib\\opcode.py',
   'PYMODULE'),
  ('ast',
   'c:\\users\\michael\\appdata\\local\\programs\\python\\python39\\lib\\ast.py',
   'PYMODULE'),
  ('tracemalloc',
   'c:\\users\\michael\\appdata\\local\\programs\\python\\python39\\lib\\tracemalloc.py',
   'PYMODULE'),
  ('_py_abc',
   'c:\\users\\michael\\appdata\\local\\programs\\python\\python39\\lib\\_py_abc.py',
   'PYMODULE'),
  ('stringprep',
   'c:\\users\\michael\\appdata\\local\\programs\\python\\python39\\lib\\stringprep.py',
   'PYMODULE'),
  ('threading',
   'c:\\users\\michael\\appdata\\local\\programs\\python\\python39\\lib\\threading.py',
   'PYMODULE'),
  ('_threading_local',
   'c:\\users\\michael\\appdata\\local\\programs\\python\\python39\\lib\\_threading_local.py',
   'PYMODULE'),
  ('socket',
   'c:\\users\\michael\\appdata\\local\\programs\\python\\python39\\lib\\socket.py',
   'PYMODULE'),
  ('sound', 'C:\\My Projects\\rickroll\\sound.py', 'PYMODULE'),
  ('keyboard', 'C:\\My Projects\\rickroll\\keyboard.py', 'PYMODULE'),
  ('playsound',
   'c:\\users\\michael\\appdata\\local\\programs\\python\\python39\\lib\\site-packages\\playsound.py',
   'PYMODULE')],
 [('api-ms-win-crt-math-l1-1-0.dll',
   'C:\\Program Files\\TortoiseGit\\bin\\api-ms-win-crt-math-l1-1-0.dll',
   'BINARY'),
  ('VCRUNTIME140.dll',
   'c:\\users\\michael\\appdata\\local\\programs\\python\\python39\\VCRUNTIME140.dll',
   'BINARY'),
  ('api-ms-win-crt-heap-l1-1-0.dll',
   'C:\\Program Files\\TortoiseGit\\bin\\api-ms-win-crt-heap-l1-1-0.dll',
   'BINARY'),
  ('api-ms-win-crt-locale-l1-1-0.dll',
   'C:\\Program Files\\TortoiseGit\\bin\\api-ms-win-crt-locale-l1-1-0.dll',
   'BINARY'),
  ('api-ms-win-crt-runtime-l1-1-0.dll',
   'C:\\Program Files\\TortoiseGit\\bin\\api-ms-win-crt-runtime-l1-1-0.dll',
   'BINARY'),
  ('python39.dll',
   'c:\\users\\michael\\appdata\\local\\programs\\python\\python39\\python39.dll',
   'BINARY'),
  ('api-ms-win-crt-stdio-l1-1-0.dll',
   'C:\\Program Files\\TortoiseGit\\bin\\api-ms-win-crt-stdio-l1-1-0.dll',
   'BINARY'),
  ('ucrtbase.dll',
   'C:\\Program Files\\TortoiseGit\\bin\\ucrtbase.dll',
   'BINARY'),
  ('api-ms-win-crt-convert-l1-1-0.dll',
   'C:\\Program Files\\TortoiseGit\\bin\\api-ms-win-crt-convert-l1-1-0.dll',
   'BINARY'),
  ('api-ms-win-crt-string-l1-1-0.dll',
   'C:\\Program Files\\TortoiseGit\\bin\\api-ms-win-crt-string-l1-1-0.dll',
   'BINARY'),
  ('api-ms-win-crt-process-l1-1-0.dll',
   'C:\\Program Files\\TortoiseGit\\bin\\api-ms-win-crt-process-l1-1-0.dll',
   'BINARY'),
  ('api-ms-win-crt-environment-l1-1-0.dll',
   'C:\\Program Files\\TortoiseGit\\bin\\api-ms-win-crt-environment-l1-1-0.dll',
   'BINARY'),
  ('api-ms-win-crt-time-l1-1-0.dll',
   'C:\\Program Files\\TortoiseGit\\bin\\api-ms-win-crt-time-l1-1-0.dll',
   'BINARY'),
  ('api-ms-win-crt-filesystem-l1-1-0.dll',
   'C:\\Program Files\\TortoiseGit\\bin\\api-ms-win-crt-filesystem-l1-1-0.dll',
   'BINARY'),
  ('api-ms-win-crt-conio-l1-1-0.dll',
   'C:\\Program Files\\TortoiseGit\\bin\\api-ms-win-crt-conio-l1-1-0.dll',
   'BINARY'),
  ('api-ms-win-core-processthreads-l1-1-0.dll',
   'C:\\Program '
   'Files\\TortoiseGit\\bin\\api-ms-win-core-processthreads-l1-1-0.dll',
   'BINARY'),
  ('api-ms-win-core-processenvironment-l1-1-0.dll',
   'C:\\Program '
   'Files\\TortoiseGit\\bin\\api-ms-win-core-processenvironment-l1-1-0.dll',
   'BINARY'),
  ('api-ms-win-core-file-l1-2-0.dll',
   'C:\\Program Files\\TortoiseGit\\bin\\api-ms-win-core-file-l1-2-0.dll',
   'BINARY'),
  ('api-ms-win-core-timezone-l1-1-0.dll',
   'C:\\Program Files\\TortoiseGit\\bin\\api-ms-win-core-timezone-l1-1-0.dll',
   'BINARY'),
  ('api-ms-win-core-handle-l1-1-0.dll',
   'C:\\Program Files\\TortoiseGit\\bin\\api-ms-win-core-handle-l1-1-0.dll',
   'BINARY'),
  ('api-ms-win-core-datetime-l1-1-0.dll',
   'C:\\Program Files\\TortoiseGit\\bin\\api-ms-win-core-datetime-l1-1-0.dll',
   'BINARY'),
  ('api-ms-win-core-libraryloader-l1-1-0.dll',
   'C:\\Program '
   'Files\\TortoiseGit\\bin\\api-ms-win-core-libraryloader-l1-1-0.dll',
   'BINARY'),
  ('api-ms-win-core-string-l1-1-0.dll',
   'C:\\Program Files\\TortoiseGit\\bin\\api-ms-win-core-string-l1-1-0.dll',
   'BINARY'),
  ('api-ms-win-core-profile-l1-1-0.dll',
   'C:\\Program Files\\TortoiseGit\\bin\\api-ms-win-core-profile-l1-1-0.dll',
   'BINARY'),
  ('api-ms-win-core-synch-l1-2-0.dll',
   'C:\\Program Files\\TortoiseGit\\bin\\api-ms-win-core-synch-l1-2-0.dll',
   'BINARY'),
  ('api-ms-win-core-console-l1-1-0.dll',
   'C:\\Program Files\\TortoiseGit\\bin\\api-ms-win-core-console-l1-1-0.dll',
   'BINARY'),
  ('api-ms-win-core-file-l1-1-0.dll',
   'C:\\Program Files\\TortoiseGit\\bin\\api-ms-win-core-file-l1-1-0.dll',
   'BINARY'),
  ('api-ms-win-core-interlocked-l1-1-0.dll',
   'C:\\Program '
   'Files\\TortoiseGit\\bin\\api-ms-win-core-interlocked-l1-1-0.dll',
   'BINARY'),
  ('api-ms-win-core-errorhandling-l1-1-0.dll',
   'C:\\Program '
   'Files\\TortoiseGit\\bin\\api-ms-win-core-errorhandling-l1-1-0.dll',
   'BINARY'),
  ('api-ms-win-core-heap-l1-1-0.dll',
   'C:\\Program Files\\TortoiseGit\\bin\\api-ms-win-core-heap-l1-1-0.dll',
   'BINARY'),
  ('api-ms-win-core-debug-l1-1-0.dll',
   'C:\\Program Files\\TortoiseGit\\bin\\api-ms-win-core-debug-l1-1-0.dll',
   'BINARY'),
  ('api-ms-win-core-namedpipe-l1-1-0.dll',
   'C:\\Program Files\\TortoiseGit\\bin\\api-ms-win-core-namedpipe-l1-1-0.dll',
   'BINARY'),
  ('api-ms-win-core-rtlsupport-l1-1-0.dll',
   'C:\\Program Files\\TortoiseGit\\bin\\api-ms-win-core-rtlsupport-l1-1-0.dll',
   'BINARY'),
  ('api-ms-win-core-memory-l1-1-0.dll',
   'C:\\Program Files\\TortoiseGit\\bin\\api-ms-win-core-memory-l1-1-0.dll',
   'BINARY'),
  ('api-ms-win-core-util-l1-1-0.dll',
   'C:\\Program Files\\TortoiseGit\\bin\\api-ms-win-core-util-l1-1-0.dll',
   'BINARY'),
  ('api-ms-win-core-synch-l1-1-0.dll',
   'C:\\Program Files\\TortoiseGit\\bin\\api-ms-win-core-synch-l1-1-0.dll',
   'BINARY'),
  ('api-ms-win-core-file-l2-1-0.dll',
   'C:\\Program Files\\TortoiseGit\\bin\\api-ms-win-core-file-l2-1-0.dll',
   'BINARY'),
  ('api-ms-win-core-localization-l1-2-0.dll',
   'C:\\Program '
   'Files\\TortoiseGit\\bin\\api-ms-win-core-localization-l1-2-0.dll',
   'BINARY'),
  ('api-ms-win-core-sysinfo-l1-1-0.dll',
   'C:\\Program Files\\TortoiseGit\\bin\\api-ms-win-core-sysinfo-l1-1-0.dll',
   'BINARY'),
  ('api-ms-win-core-processthreads-l1-1-1.dll',
   'C:\\Program '
   'Files\\TortoiseGit\\bin\\api-ms-win-core-processthreads-l1-1-1.dll',
   'BINARY'),
  ('select',
   'c:\\users\\michael\\appdata\\local\\programs\\python\\python39\\DLLs\\select.pyd',
   'EXTENSION'),
  ('_lzma',
   'c:\\users\\michael\\appdata\\local\\programs\\python\\python39\\DLLs\\_lzma.pyd',
   'EXTENSION'),
  ('_bz2',
   'c:\\users\\michael\\appdata\\local\\programs\\python\\python39\\DLLs\\_bz2.pyd',
   'EXTENSION'),
  ('unicodedata',
   'c:\\users\\michael\\appdata\\local\\programs\\python\\python39\\DLLs\\unicodedata.pyd',
   'EXTENSION'),
  ('_decimal',
   'c:\\users\\michael\\appdata\\local\\programs\\python\\python39\\DLLs\\_decimal.pyd',
   'EXTENSION'),
  ('_overlapped',
   'c:\\users\\michael\\appdata\\local\\programs\\python\\python39\\DLLs\\_overlapped.pyd',
   'EXTENSION'),
  ('_ssl',
   'c:\\users\\michael\\appdata\\local\\programs\\python\\python39\\DLLs\\_ssl.pyd',
   'EXTENSION'),
  ('_asyncio',
   'c:\\users\\michael\\appdata\\local\\programs\\python\\python39\\DLLs\\_asyncio.pyd',
   'EXTENSION'),
  ('_queue',
   'c:\\users\\michael\\appdata\\local\\programs\\python\\python39\\DLLs\\_queue.pyd',
   'EXTENSION'),
  ('_ctypes',
   'c:\\users\\michael\\appdata\\local\\programs\\python\\python39\\DLLs\\_ctypes.pyd',
   'EXTENSION'),
  ('_multiprocessing',
   'c:\\users\\michael\\appdata\\local\\programs\\python\\python39\\DLLs\\_multiprocessing.pyd',
   'EXTENSION'),
  ('pyexpat',
   'c:\\users\\michael\\appdata\\local\\programs\\python\\python39\\DLLs\\pyexpat.pyd',
   'EXTENSION'),
  ('_hashlib',
   'c:\\users\\michael\\appdata\\local\\programs\\python\\python39\\DLLs\\_hashlib.pyd',
   'EXTENSION'),
  ('_socket',
   'c:\\users\\michael\\appdata\\local\\programs\\python\\python39\\DLLs\\_socket.pyd',
   'EXTENSION'),
  ('libssl-1_1.dll',
   'c:\\users\\michael\\appdata\\local\\programs\\python\\python39\\DLLs\\libssl-1_1.dll',
   'BINARY'),
  ('libcrypto-1_1.dll',
   'c:\\users\\michael\\appdata\\local\\programs\\python\\python39\\DLLs\\libcrypto-1_1.dll',
   'BINARY'),
  ('libffi-7.dll',
   'c:\\users\\michael\\appdata\\local\\programs\\python\\python39\\DLLs\\libffi-7.dll',
   'BINARY'),
  ('api-ms-win-crt-utility-l1-1-0.dll',
   'C:\\Program Files\\TortoiseGit\\bin\\api-ms-win-crt-utility-l1-1-0.dll',
   'BINARY')],
 [],
 [],
 [('base_library.zip',
   'C:\\My Projects\\rickroll\\build\\client\\base_library.zip',
   'DATA')],
 [])
